2020-10-03/12:31:44		BadRaw directory deleted before starting validation!!!
2020-10-03/12:31:48		GoodRaw directory deleted successfully!!!
2020-10-03/13:35:16		BadRaw directory deleted before starting validation!!!
2020-10-03/13:35:17		GoodRaw directory deleted successfully!!!
2020-10-04/13:09:37		Error while creating Directory [WinError 183] Cannot create a file when that file already exists: 'Prediction_Raw_Files_Validated/Good_Raw/':
2020-10-04/13:11:33		Error while creating Directory [WinError 183] Cannot create a file when that file already exists: 'Prediction_Raw_Files_Validated/Good_Raw/':
2020-10-04/13:28:24		BadRaw directory deleted before starting validation!!!
2020-10-04/13:28:24		GoodRaw directory deleted successfully!!!
2020-10-04/13:30:35		GoodRaw directory deleted successfully!!!
2020-10-04/13:30:39		Bad files moved to archive
2020-10-04/13:30:39		Bad Raw Data Folder Deleted successfully!!
2020-10-04/13:43:41		GoodRaw directory deleted successfully!!!
2020-10-04/13:43:45		Bad files moved to archive
2020-10-04/13:43:45		Bad Raw Data Folder Deleted successfully!!
2020-10-04/13:51:06		GoodRaw directory deleted successfully!!!
2020-10-04/13:51:08		Bad files moved to archive
2020-10-04/13:51:08		Bad Raw Data Folder Deleted successfully!!
2020-10-04/15:24:37		BadRaw directory deleted before starting validation!!!
2020-10-04/15:24:38		GoodRaw directory deleted successfully!!!
2020-10-04/15:29:53		BadRaw directory deleted before starting validation!!!
2020-10-04/15:29:54		GoodRaw directory deleted successfully!!!
2020-10-04/15:31:37		GoodRaw directory deleted successfully!!!
2020-10-04/15:34:43		Bad files moved to archive
2020-10-04/15:34:46		Bad Raw Data Folder Deleted successfully!!
2020-10-04/15:44:07		GoodRaw directory deleted successfully!!!
2020-10-04/15:44:10		Bad files moved to archive
2020-10-04/15:44:10		Bad Raw Data Folder Deleted successfully!!
2020-10-04/16:00:35		GoodRaw directory deleted successfully!!!
2020-10-04/16:00:37		Bad files moved to archive
2020-10-04/16:00:37		Bad Raw Data Folder Deleted successfully!!
2020-10-04/16:22:33		GoodRaw directory deleted successfully!!!
2020-10-04/16:22:35		Bad files moved to archive
2020-10-04/16:22:35		Bad Raw Data Folder Deleted successfully!!
2020-10-04/16:46:19		GoodRaw directory deleted successfully!!!
2020-10-04/16:46:21		Bad files moved to archive
2020-10-04/16:46:21		Bad Raw Data Folder Deleted successfully!!
2020-10-04/16:58:06		GoodRaw directory deleted successfully!!!
2020-10-04/16:58:07		Bad files moved to archive
2020-10-04/16:58:07		Bad Raw Data Folder Deleted successfully!!
2020-10-04/17:01:55		GoodRaw directory deleted successfully!!!
2020-10-04/17:01:57		Bad files moved to archive
2020-10-04/17:01:57		Bad Raw Data Folder Deleted successfully!!
2020-10-04/17:07:32		GoodRaw directory deleted successfully!!!
2020-10-04/17:07:35		Bad files moved to archive
2020-10-04/17:07:35		Bad Raw Data Folder Deleted successfully!!
2020-10-04/17:18:32		GoodRaw directory deleted successfully!!!
2020-10-04/17:18:36		Bad files moved to archive
2020-10-04/17:18:36		Bad Raw Data Folder Deleted successfully!!
2020-10-04/17:31:22		GoodRaw directory deleted successfully!!!
2020-10-04/17:31:26		Bad files moved to archive
2020-10-04/17:31:26		Bad Raw Data Folder Deleted successfully!!
2020-10-04/17:44:31		GoodRaw directory deleted successfully!!!
2020-10-04/17:44:32		Bad files moved to archive
2020-10-04/17:44:32		Bad Raw Data Folder Deleted successfully!!
2020-10-04/18:04:58		GoodRaw directory deleted successfully!!!
2020-10-04/18:05:00		Bad files moved to archive
2020-10-04/18:05:00		Bad Raw Data Folder Deleted successfully!!
2020-10-07/13:04:51		GoodRaw directory deleted successfully!!!
2020-10-07/13:04:51		Bad files moved to archive
2020-10-07/13:04:51		Bad Raw Data Folder Deleted successfully!!
2020-10-07/13:07:13		GoodRaw directory deleted successfully!!!
2020-10-07/13:07:13		Bad files moved to archive
2020-10-07/13:07:13		Bad Raw Data Folder Deleted successfully!!
2020-10-07/13:12:21		GoodRaw directory deleted successfully!!!
2020-10-07/13:12:21		Bad files moved to archive
2020-10-07/13:12:21		Bad Raw Data Folder Deleted successfully!!
2020-10-07/13:13:37		GoodRaw directory deleted successfully!!!
2020-10-07/13:13:37		Bad files moved to archive
2020-10-07/13:13:37		Bad Raw Data Folder Deleted successfully!!
2020-10-07/13:16:23		GoodRaw directory deleted successfully!!!
2020-10-07/13:16:23		Bad files moved to archive
2020-10-07/13:16:23		Bad Raw Data Folder Deleted successfully!!
2020-10-07/13:19:56		GoodRaw directory deleted successfully!!!
2020-10-07/13:19:56		Bad files moved to archive
2020-10-07/13:19:56		Bad Raw Data Folder Deleted successfully!!
2020-10-07/13:20:58		GoodRaw directory deleted successfully!!!
2020-10-07/13:20:58		Bad files moved to archive
2020-10-07/13:20:58		Bad Raw Data Folder Deleted successfully!!
2020-10-07/19:54:06		GoodRaw directory deleted successfully!!!
2020-10-07/19:54:08		Bad files moved to archive
2020-10-07/19:54:08		Bad Raw Data Folder Deleted successfully!!
2020-10-07/21:18:26		GoodRaw directory deleted successfully!!!
2020-10-07/21:18:26		Bad files moved to archive
2020-10-07/21:18:26		Bad Raw Data Folder Deleted successfully!!
2020-10-07/21:18:40		GoodRaw directory deleted successfully!!!
2020-10-07/21:18:40		Bad files moved to archive
2020-10-07/21:18:40		Bad Raw Data Folder Deleted successfully!!
2020-10-07/21:19:31		GoodRaw directory deleted successfully!!!
2020-10-07/21:19:31		Bad files moved to archive
2020-10-07/21:19:31		Bad Raw Data Folder Deleted successfully!!
2020-10-07/21:20:12		GoodRaw directory deleted successfully!!!
2020-10-07/21:20:12		Bad files moved to archive
2020-10-07/21:20:12		Bad Raw Data Folder Deleted successfully!!
2020-10-07/21:20:39		GoodRaw directory deleted successfully!!!
2020-10-07/21:20:40		Bad files moved to archive
2020-10-07/21:20:40		Bad Raw Data Folder Deleted successfully!!
2020-10-07/21:54:22		GoodRaw directory deleted successfully!!!
2020-10-07/21:54:22		Bad files moved to archive
2020-10-07/21:54:22		Bad Raw Data Folder Deleted successfully!!
2020-10-07/22:00:42		GoodRaw directory deleted successfully!!!
2020-10-07/22:00:44		Bad files moved to archive
2020-10-07/22:00:44		Bad Raw Data Folder Deleted successfully!!
2020-10-07/22:06:02		GoodRaw directory deleted successfully!!!
2020-10-07/22:06:04		Bad files moved to archive
2020-10-07/22:06:04		Bad Raw Data Folder Deleted successfully!!
2020-10-07/22:08:39		GoodRaw directory deleted successfully!!!
2020-10-07/22:08:42		Bad files moved to archive
2020-10-07/22:08:42		Bad Raw Data Folder Deleted successfully!!
2020-10-07/22:14:27		GoodRaw directory deleted successfully!!!
2020-10-07/22:14:29		Bad files moved to archive
2020-10-07/22:14:29		Bad Raw Data Folder Deleted successfully!!
2020-10-07/22:32:07		GoodRaw directory deleted successfully!!!
2020-10-07/22:32:09		Bad files moved to archive
2020-10-07/22:32:09		Bad Raw Data Folder Deleted successfully!!
2020-10-07/22:35:13		GoodRaw directory deleted successfully!!!
2020-10-07/22:35:13		Bad files moved to archive
2020-10-07/22:35:13		Bad Raw Data Folder Deleted successfully!!
2020-10-07/22:39:44		GoodRaw directory deleted successfully!!!
2020-10-07/22:39:44		Bad files moved to archive
2020-10-07/22:39:44		Bad Raw Data Folder Deleted successfully!!
2020-10-15/19:24:21		GoodRaw directory deleted successfully!!!
2020-10-15/19:24:21		Bad files moved to archive
2020-10-15/19:24:21		Bad Raw Data Folder Deleted successfully!!
2020-10-15/19:27:34		GoodRaw directory deleted successfully!!!
2020-10-15/19:27:34		Bad files moved to archive
2020-10-15/19:27:34		Bad Raw Data Folder Deleted successfully!!
2020-10-15/19:28:43		GoodRaw directory deleted successfully!!!
2020-10-15/19:28:43		Bad files moved to archive
2020-10-15/19:28:43		Bad Raw Data Folder Deleted successfully!!
2020-10-15/19:29:10		GoodRaw directory deleted successfully!!!
2020-10-15/19:29:10		Bad files moved to archive
2020-10-15/19:29:10		Bad Raw Data Folder Deleted successfully!!
2020-10-15/19:31:11		GoodRaw directory deleted successfully!!!
2020-10-15/19:31:14		Bad files moved to archive
2020-10-15/19:31:14		Bad Raw Data Folder Deleted successfully!!
2020-10-15/19:37:11		GoodRaw directory deleted successfully!!!
2020-10-15/19:37:11		Bad files moved to archive
2020-10-15/19:37:11		Bad Raw Data Folder Deleted successfully!!
2020-10-15/19:40:03		GoodRaw directory deleted successfully!!!
2020-10-15/19:40:03		Bad files moved to archive
2020-10-15/19:40:03		Bad Raw Data Folder Deleted successfully!!
2020-10-15/19:43:34		GoodRaw directory deleted successfully!!!
2020-10-15/19:43:34		Bad files moved to archive
2020-10-15/19:43:34		Bad Raw Data Folder Deleted successfully!!
2020-10-15/19:47:14		GoodRaw directory deleted successfully!!!
2020-10-15/19:47:14		Bad files moved to archive
2020-10-15/19:47:14		Bad Raw Data Folder Deleted successfully!!
2020-10-16/19:49:30		GoodRaw directory deleted successfully!!!
2020-10-16/19:49:30		Bad files moved to archive
2020-10-16/19:49:30		Bad Raw Data Folder Deleted successfully!!
2020-10-17/13:24:20		GoodRaw directory deleted successfully!!!
2020-10-17/13:24:20		Bad files moved to archive
2020-10-17/13:24:20		Bad Raw Data Folder Deleted successfully!!
2020-10-17/13:41:25		GoodRaw directory deleted successfully!!!
2020-10-17/13:41:25		Bad files moved to archive
2020-10-17/13:41:25		Bad Raw Data Folder Deleted successfully!!
2020-11-04/19:33:42		BadRaw directory deleted before starting validation!!!
2020-11-04/19:33:42		Error while Deleting Directory : [WinError 32] The process cannot access the file because it is being used by another process: 'Prediction_Raw_Files_Validated/Good_Raw/HealthPrem_26092020_131534.csv'
2020-11-04/19:34:10		GoodRaw directory deleted successfully!!!
2020-11-04/19:34:10		Error while moving bad files to archive:: [WinError 3] The system cannot find the path specified: 'Prediction_Raw_Files_Validated/Bad_Raw/'
2020-11-08/19:59:40		GoodRaw directory deleted successfully!!!
2020-11-08/19:59:40		Bad files moved to archive
2020-11-08/19:59:40		Bad Raw Data Folder Deleted successfully!!
2020-11-08/21:38:10		BadRaw directory deleted before starting validation!!!
2020-11-08/21:38:10		GoodRaw directory deleted successfully!!!
2020-11-08/21:38:21		GoodRaw directory deleted successfully!!!
2020-11-08/21:38:21		Bad files moved to archive
2020-11-08/21:38:21		Bad Raw Data Folder Deleted successfully!!
2020-11-08/21:39:45		GoodRaw directory deleted successfully!!!
2020-11-08/21:39:45		Bad files moved to archive
2020-11-08/21:39:45		Bad Raw Data Folder Deleted successfully!!
2020-11-08/21:44:13		GoodRaw directory deleted successfully!!!
2020-11-08/21:44:13		Bad files moved to archive
2020-11-08/21:44:13		Bad Raw Data Folder Deleted successfully!!
2020-11-08/21:49:29		GoodRaw directory deleted successfully!!!
2020-11-08/21:49:29		Bad files moved to archive
2020-11-08/21:49:29		Bad Raw Data Folder Deleted successfully!!
2020-11-08/21:54:48		GoodRaw directory deleted successfully!!!
2020-11-08/21:54:48		Bad files moved to archive
2020-11-08/21:54:48		Bad Raw Data Folder Deleted successfully!!
2020-11-08/21:57:37		GoodRaw directory deleted successfully!!!
2020-11-08/21:57:37		Bad files moved to archive
2020-11-08/21:57:37		Bad Raw Data Folder Deleted successfully!!
2020-11-09/21:35:20		GoodRaw directory deleted successfully!!!
2020-11-09/21:35:20		Bad files moved to archive
2020-11-09/21:35:20		Bad Raw Data Folder Deleted successfully!!
