2020-10-03/12:11:12		Start of Validation on files for prediction!!
2020-10-03/12:12:29		Start of Validation on files for prediction!!
2020-10-03/12:16:39		Start of Validation on files for prediction!!
2020-10-03/12:18:24		Start of Validation on files for prediction!!
2020-10-03/12:18:57		Start of Validation on files for prediction!!
2020-10-03/12:19:24		Start of Validation on files for prediction!!
2020-10-03/12:20:03		Start of Validation on files for prediction!!
2020-10-03/12:20:51		Start of Validation on files for prediction!!
2020-10-03/12:22:34		Start of Validation on files for prediction!!
2020-10-03/12:31:12		Start of Validation on files for prediction!!
2020-10-03/13:03:13		Start of Validation on files for prediction!!
2020-10-03/13:31:16		Start of Validation on files for prediction!!
2020-10-04/12:47:49		Start of Validation on files for prediction!!
2020-10-04/13:11:27		Start of Validation on files for prediction!!
2020-10-07/21:18:25		Start of Validation on files for prediction!!
2020-10-07/21:18:25		Raw Data Validation Complete!!
2020-10-07/21:18:25		Starting Data Transforamtion!!
2020-10-07/21:18:25		DataTransformation Completed!!!
2020-10-07/21:18:25		Creating Prediction_Database and tables on the basis of given schema!!!
2020-10-07/21:18:26		Table creation Completed!!
2020-10-07/21:18:26		Insertion of Data into Table started!!!!
2020-10-07/21:18:26		Insertion in Table completed!!!
2020-10-07/21:18:26		Deleting Good Data Folder!!!
2020-10-07/21:18:26		Good_Data folder deleted!!!
2020-10-07/21:18:26		Moving bad files to Archive and deleting Bad_Data folder!!!
2020-10-07/21:18:26		Bad files moved to archive!! Bad folder Deleted!!
2020-10-07/21:18:26		Validation Operation completed!!
2020-10-07/21:18:26		Extracting csv file from table
2020-10-07/21:18:26		Start of Prediction
2020-10-07/21:18:26		Entered the get_data method of the Data_Getter class
2020-10-07/21:18:26		Data Load Successful.Exited the get_data method of the Data_Getter class
2020-10-07/21:18:26		Entered the is_null_present method of the Preprocessor class
2020-10-07/21:18:26		Finding missing values is a success.Data written to the null values file. Exited the is_null_present method of the Preprocessor class
2020-10-07/21:18:26		Entered the load_model method of the File_Operation class
2020-10-07/21:18:26		Model File KMeans loaded. Exited the load_model method of the Model_Finder class
2020-10-07/21:18:26		Error occured while running the prediction!! Error:: Found array with 0 sample(s) (shape=(0, 5)) while a minimum of 1 is required.
2020-10-07/21:18:39		Start of Validation on files for prediction!!
2020-10-07/21:18:40		Raw Data Validation Complete!!
2020-10-07/21:18:40		Starting Data Transforamtion!!
2020-10-07/21:18:40		DataTransformation Completed!!!
2020-10-07/21:18:40		Creating Prediction_Database and tables on the basis of given schema!!!
2020-10-07/21:18:40		Table creation Completed!!
2020-10-07/21:18:40		Insertion of Data into Table started!!!!
2020-10-07/21:18:40		Insertion in Table completed!!!
2020-10-07/21:18:40		Deleting Good Data Folder!!!
2020-10-07/21:18:40		Good_Data folder deleted!!!
2020-10-07/21:18:40		Moving bad files to Archive and deleting Bad_Data folder!!!
2020-10-07/21:18:40		Bad files moved to archive!! Bad folder Deleted!!
2020-10-07/21:18:40		Validation Operation completed!!
2020-10-07/21:18:40		Extracting csv file from table
2020-10-07/21:18:40		Start of Prediction
2020-10-07/21:18:40		Entered the get_data method of the Data_Getter class
2020-10-07/21:18:40		Data Load Successful.Exited the get_data method of the Data_Getter class
2020-10-07/21:18:40		Entered the is_null_present method of the Preprocessor class
2020-10-07/21:18:40		Finding missing values is a success.Data written to the null values file. Exited the is_null_present method of the Preprocessor class
2020-10-07/21:18:40		Entered the load_model method of the File_Operation class
2020-10-07/21:18:40		Model File KMeans loaded. Exited the load_model method of the Model_Finder class
2020-10-07/21:18:40		Error occured while running the prediction!! Error:: Found array with 0 sample(s) (shape=(0, 5)) while a minimum of 1 is required.
2020-10-07/21:19:31		Start of Validation on files for prediction!!
2020-10-07/21:19:31		Raw Data Validation Complete!!
2020-10-07/21:19:31		Starting Data Transforamtion!!
2020-10-07/21:19:31		DataTransformation Completed!!!
2020-10-07/21:19:31		Creating Prediction_Database and tables on the basis of given schema!!!
2020-10-07/21:19:31		Table creation Completed!!
2020-10-07/21:19:31		Insertion of Data into Table started!!!!
2020-10-07/21:19:31		Insertion in Table completed!!!
2020-10-07/21:19:31		Deleting Good Data Folder!!!
2020-10-07/21:19:31		Good_Data folder deleted!!!
2020-10-07/21:19:31		Moving bad files to Archive and deleting Bad_Data folder!!!
2020-10-07/21:19:31		Bad files moved to archive!! Bad folder Deleted!!
2020-10-07/21:19:31		Validation Operation completed!!
2020-10-07/21:19:31		Extracting csv file from table
2020-10-07/21:19:31		Start of Prediction
2020-10-07/21:19:31		Entered the get_data method of the Data_Getter class
2020-10-07/21:19:31		Data Load Successful.Exited the get_data method of the Data_Getter class
2020-10-07/21:19:31		Entered the is_null_present method of the Preprocessor class
2020-10-07/21:19:31		Finding missing values is a success.Data written to the null values file. Exited the is_null_present method of the Preprocessor class
2020-10-07/21:19:31		Entered the load_model method of the File_Operation class
2020-10-07/21:19:31		Model File KMeans loaded. Exited the load_model method of the Model_Finder class
2020-10-07/21:19:31		Error occured while running the prediction!! Error:: Found array with 0 sample(s) (shape=(0, 5)) while a minimum of 1 is required.
2020-10-07/21:20:12		Start of Validation on files for prediction!!
2020-10-07/21:20:12		Raw Data Validation Complete!!
2020-10-07/21:20:12		Starting Data Transforamtion!!
2020-10-07/21:20:12		DataTransformation Completed!!!
2020-10-07/21:20:12		Creating Prediction_Database and tables on the basis of given schema!!!
2020-10-07/21:20:12		Table creation Completed!!
2020-10-07/21:20:12		Insertion of Data into Table started!!!!
2020-10-07/21:20:12		Insertion in Table completed!!!
2020-10-07/21:20:12		Deleting Good Data Folder!!!
2020-10-07/21:20:12		Good_Data folder deleted!!!
2020-10-07/21:20:12		Moving bad files to Archive and deleting Bad_Data folder!!!
2020-10-07/21:20:12		Bad files moved to archive!! Bad folder Deleted!!
2020-10-07/21:20:12		Validation Operation completed!!
2020-10-07/21:20:12		Extracting csv file from table
2020-10-07/21:20:12		Start of Prediction
2020-10-07/21:20:12		Entered the get_data method of the Data_Getter class
2020-10-07/21:20:12		Data Load Successful.Exited the get_data method of the Data_Getter class
2020-10-07/21:20:12		Entered the is_null_present method of the Preprocessor class
2020-10-07/21:20:12		Finding missing values is a success.Data written to the null values file. Exited the is_null_present method of the Preprocessor class
2020-10-07/21:20:12		Entered the load_model method of the File_Operation class
2020-10-07/21:20:12		Model File KMeans loaded. Exited the load_model method of the Model_Finder class
2020-10-07/21:20:12		Error occured while running the prediction!! Error:: Found array with 0 sample(s) (shape=(0, 5)) while a minimum of 1 is required.
2020-10-15/19:24:21		Start of Validation on files for prediction!!
2020-10-15/19:24:21		Raw Data Validation Complete!!
2020-10-15/19:24:21		Starting Data Transforamtion!!
2020-10-15/19:24:21		DataTransformation Completed!!!
2020-10-15/19:24:21		Creating Prediction_Database and tables on the basis of given schema!!!
2020-10-15/19:24:21		Table creation Completed!!
2020-10-15/19:24:21		Insertion of Data into Table started!!!!
2020-10-15/19:24:21		Insertion in Table completed!!!
2020-10-15/19:24:21		Deleting Good Data Folder!!!
2020-10-15/19:24:21		Good_Data folder deleted!!!
2020-10-15/19:24:21		Moving bad files to Archive and deleting Bad_Data folder!!!
2020-10-15/19:24:21		Bad files moved to archive!! Bad folder Deleted!!
2020-10-15/19:24:21		Validation Operation completed!!
2020-10-15/19:24:21		Extracting csv file from table
2020-10-15/19:24:21		Start of Prediction
2020-10-15/19:24:21		Entered the get_data method of the Data_Getter class
2020-10-15/19:24:21		Data Load Successful.Exited the get_data method of the Data_Getter class
2020-10-15/19:24:21		Entered the is_null_present method of the Preprocessor class
2020-10-15/19:24:21		Finding missing values is a success.Data written to the null values file. Exited the is_null_present method of the Preprocessor class
2020-10-15/19:24:21		Entered the load_model method of the File_Operation class
2020-10-15/19:24:21		Model File KMeans loaded. Exited the load_model method of the Model_Finder class
2020-10-15/19:24:21		Error occured while running the prediction!! Error:: Found array with 0 sample(s) (shape=(0, 5)) while a minimum of 1 is required.
2020-10-15/19:27:34		Start of Validation on files for prediction!!
2020-10-15/19:27:34		Raw Data Validation Complete!!
2020-10-15/19:27:34		Starting Data Transforamtion!!
2020-10-15/19:27:34		DataTransformation Completed!!!
2020-10-15/19:27:34		Creating Prediction_Database and tables on the basis of given schema!!!
2020-10-15/19:27:34		Table creation Completed!!
2020-10-15/19:27:34		Insertion of Data into Table started!!!!
2020-10-15/19:27:34		Insertion in Table completed!!!
2020-10-15/19:27:34		Deleting Good Data Folder!!!
2020-10-15/19:27:34		Good_Data folder deleted!!!
2020-10-15/19:27:34		Moving bad files to Archive and deleting Bad_Data folder!!!
2020-10-15/19:27:34		Bad files moved to archive!! Bad folder Deleted!!
2020-10-15/19:27:34		Validation Operation completed!!
2020-10-15/19:27:34		Extracting csv file from table
2020-10-15/19:27:34		Start of Prediction
2020-10-15/19:27:34		Entered the get_data method of the Data_Getter class
2020-10-15/19:27:34		Data Load Successful.Exited the get_data method of the Data_Getter class
2020-10-15/19:27:34		Entered the is_null_present method of the Preprocessor class
2020-10-15/19:27:34		Finding missing values is a success.Data written to the null values file. Exited the is_null_present method of the Preprocessor class
2020-10-15/19:27:34		Entered the load_model method of the File_Operation class
2020-10-15/19:27:34		Model File KMeans loaded. Exited the load_model method of the Model_Finder class
2020-10-15/19:27:34		Error occured while running the prediction!! Error:: Found array with 0 sample(s) (shape=(0, 5)) while a minimum of 1 is required.
2020-10-15/19:28:43		Start of Validation on files for prediction!!
2020-10-15/19:28:43		Raw Data Validation Complete!!
2020-10-15/19:28:43		Starting Data Transforamtion!!
2020-10-15/19:28:43		DataTransformation Completed!!!
2020-10-15/19:28:43		Creating Prediction_Database and tables on the basis of given schema!!!
2020-10-15/19:28:43		Table creation Completed!!
2020-10-15/19:28:43		Insertion of Data into Table started!!!!
2020-10-15/19:28:43		Insertion in Table completed!!!
2020-10-15/19:28:43		Deleting Good Data Folder!!!
2020-10-15/19:28:43		Good_Data folder deleted!!!
2020-10-15/19:28:43		Moving bad files to Archive and deleting Bad_Data folder!!!
2020-10-15/19:28:43		Bad files moved to archive!! Bad folder Deleted!!
2020-10-15/19:28:43		Validation Operation completed!!
2020-10-15/19:28:43		Extracting csv file from table
2020-10-15/19:28:44		Start of Prediction
2020-10-15/19:28:44		Entered the get_data method of the Data_Getter class
2020-10-15/19:28:44		Data Load Successful.Exited the get_data method of the Data_Getter class
2020-10-15/19:28:44		Entered the is_null_present method of the Preprocessor class
2020-10-15/19:28:44		Finding missing values is a success.Data written to the null values file. Exited the is_null_present method of the Preprocessor class
2020-10-15/19:28:44		Entered the load_model method of the File_Operation class
2020-10-15/19:28:44		Model File KMeans loaded. Exited the load_model method of the Model_Finder class
2020-10-15/19:28:44		Error occured while running the prediction!! Error:: Found array with 0 sample(s) (shape=(0, 5)) while a minimum of 1 is required.
2020-10-15/19:29:10		Start of Validation on files for prediction!!
2020-10-15/19:29:10		Raw Data Validation Complete!!
2020-10-15/19:29:10		Starting Data Transforamtion!!
2020-10-15/19:29:10		DataTransformation Completed!!!
2020-10-15/19:29:10		Creating Prediction_Database and tables on the basis of given schema!!!
2020-10-15/19:29:10		Table creation Completed!!
2020-10-15/19:29:10		Insertion of Data into Table started!!!!
2020-10-15/19:29:10		Insertion in Table completed!!!
2020-10-15/19:29:10		Deleting Good Data Folder!!!
2020-10-15/19:29:10		Good_Data folder deleted!!!
2020-10-15/19:29:10		Moving bad files to Archive and deleting Bad_Data folder!!!
2020-10-15/19:29:10		Bad files moved to archive!! Bad folder Deleted!!
2020-10-15/19:29:10		Validation Operation completed!!
2020-10-15/19:29:10		Extracting csv file from table
2020-10-15/19:29:10		Start of Prediction
2020-10-15/19:29:10		Entered the get_data method of the Data_Getter class
2020-10-15/19:29:10		Data Load Successful.Exited the get_data method of the Data_Getter class
2020-10-15/19:29:10		Entered the is_null_present method of the Preprocessor class
2020-10-15/19:29:10		Finding missing values is a success.Data written to the null values file. Exited the is_null_present method of the Preprocessor class
2020-10-15/19:29:10		Entered the load_model method of the File_Operation class
2020-10-15/19:29:10		Model File KMeans loaded. Exited the load_model method of the Model_Finder class
2020-10-15/19:29:10		Error occured while running the prediction!! Error:: Found array with 0 sample(s) (shape=(0, 5)) while a minimum of 1 is required.
2020-10-15/19:47:13		Start of Validation on files for prediction!!
2020-10-15/19:47:13		Raw Data Validation Complete!!
2020-10-15/19:47:13		Starting Data Transforamtion!!
2020-10-15/19:47:13		DataTransformation Completed!!!
2020-10-15/19:47:13		Creating Prediction_Database and tables on the basis of given schema!!!
2020-10-15/19:47:13		Table creation Completed!!
2020-10-15/19:47:13		Insertion of Data into Table started!!!!
2020-10-15/19:47:14		Insertion in Table completed!!!
2020-10-15/19:47:14		Deleting Good Data Folder!!!
2020-10-15/19:47:14		Good_Data folder deleted!!!
2020-10-15/19:47:14		Moving bad files to Archive and deleting Bad_Data folder!!!
2020-10-15/19:47:14		Bad files moved to archive!! Bad folder Deleted!!
2020-10-15/19:47:14		Validation Operation completed!!
2020-10-15/19:47:14		Extracting csv file from table
2020-10-15/19:47:22		Start of Prediction
2020-10-15/19:47:24		Entered the get_data method of the Data_Getter class
2020-10-15/19:47:24		Data Load Successful.Exited the get_data method of the Data_Getter class
2020-10-15/19:47:35		Entered the is_null_present method of the Preprocessor class
2020-10-15/19:47:35		Finding missing values is a success.Data written to the null values file. Exited the is_null_present method of the Preprocessor class
2020-10-15/19:47:43		Entered the load_model method of the File_Operation class
2020-10-15/19:47:43		Model File KMeans loaded. Exited the load_model method of the Model_Finder class
2020-10-15/19:48:02		Entered the find_correct_model_file method of the File_Operation class
2020-10-15/19:48:02		Exited the find_correct_model_file method of the Model_Finder class.
2020-10-15/19:48:03		Entered the load_model method of the File_Operation class
2020-10-15/19:48:03		Model File RandomForest0 loaded. Exited the load_model method of the Model_Finder class
2020-10-15/19:48:10		End of Prediction
2020-10-15/19:48:11		End of Prediction
2020-10-16/19:49:29		Start of Validation on files for prediction!!
2020-10-16/19:49:29		Raw Data Validation Complete!!
2020-10-16/19:49:29		Starting Data Transforamtion!!
2020-10-16/19:49:29		DataTransformation Completed!!!
2020-10-16/19:49:29		Creating Prediction_Database and tables on the basis of given schema!!!
2020-10-16/19:49:29		Table creation Completed!!
2020-10-16/19:49:29		Insertion of Data into Table started!!!!
2020-10-16/19:49:30		Insertion in Table completed!!!
2020-10-16/19:49:30		Deleting Good Data Folder!!!
2020-10-16/19:49:30		Good_Data folder deleted!!!
2020-10-16/19:49:30		Moving bad files to Archive and deleting Bad_Data folder!!!
2020-10-16/19:49:30		Bad files moved to archive!! Bad folder Deleted!!
2020-10-16/19:49:30		Validation Operation completed!!
2020-10-16/19:49:30		Extracting csv file from table
2020-10-16/19:49:30		Start of Prediction
2020-10-16/19:49:30		Entered the get_data method of the Data_Getter class
2020-10-16/19:49:30		Data Load Successful.Exited the get_data method of the Data_Getter class
2020-10-16/19:49:30		Entered the is_null_present method of the Preprocessor class
2020-10-16/19:49:30		Finding missing values is a success.Data written to the null values file. Exited the is_null_present method of the Preprocessor class
2020-10-16/19:49:30		Entered the load_model method of the File_Operation class
2020-10-16/19:49:30		Model File KMeans loaded. Exited the load_model method of the Model_Finder class
2020-10-16/19:49:30		Entered the find_correct_model_file method of the File_Operation class
2020-10-16/19:49:30		Exited the find_correct_model_file method of the Model_Finder class.
2020-10-16/19:49:30		Entered the load_model method of the File_Operation class
2020-10-16/19:49:30		Model File XGBoost0 loaded. Exited the load_model method of the Model_Finder class
2020-10-16/19:49:30		End of Prediction
2020-10-16/19:49:30		End of Prediction
2020-10-17/13:24:19		Start of Validation on files for prediction!!
2020-10-17/13:24:19		Raw Data Validation Complete!!
2020-10-17/13:24:19		Starting Data Transforamtion!!
2020-10-17/13:24:19		DataTransformation Completed!!!
2020-10-17/13:24:19		Creating Prediction_Database and tables on the basis of given schema!!!
2020-10-17/13:24:19		Table creation Completed!!
2020-10-17/13:24:19		Insertion of Data into Table started!!!!
2020-10-17/13:24:20		Insertion in Table completed!!!
2020-10-17/13:24:20		Deleting Good Data Folder!!!
2020-10-17/13:24:20		Good_Data folder deleted!!!
2020-10-17/13:24:20		Moving bad files to Archive and deleting Bad_Data folder!!!
2020-10-17/13:24:20		Bad files moved to archive!! Bad folder Deleted!!
2020-10-17/13:24:20		Validation Operation completed!!
2020-10-17/13:24:20		Extracting csv file from table
2020-10-17/13:24:20		Start of Prediction
2020-10-17/13:24:20		Entered the get_data method of the Data_Getter class
2020-10-17/13:24:20		Data Load Successful.Exited the get_data method of the Data_Getter class
2020-10-17/13:24:20		Entered the is_null_present method of the Preprocessor class
2020-10-17/13:24:20		Finding missing values is a success.Data written to the null values file. Exited the is_null_present method of the Preprocessor class
2020-10-17/13:24:20		Entered the load_model method of the File_Operation class
2020-10-17/13:24:20		Model File KMeans loaded. Exited the load_model method of the Model_Finder class
2020-10-17/13:24:20		Entered the find_correct_model_file method of the File_Operation class
2020-10-17/13:24:20		Exited the find_correct_model_file method of the Model_Finder class.
2020-10-17/13:24:20		Entered the load_model method of the File_Operation class
2020-10-17/13:24:20		Model File XGBoost0 loaded. Exited the load_model method of the Model_Finder class
2020-10-17/13:24:20		End of Prediction
2020-10-17/13:24:20		End of Prediction
2020-10-17/13:41:24		Start of Validation on files for prediction!!
2020-10-17/13:41:24		Raw Data Validation Complete!!
2020-10-17/13:41:24		Starting Data Transforamtion!!
2020-10-17/13:41:24		DataTransformation Completed!!!
2020-10-17/13:41:24		Creating Prediction_Database and tables on the basis of given schema!!!
2020-10-17/13:41:24		Table creation Completed!!
2020-10-17/13:41:24		Insertion of Data into Table started!!!!
2020-10-17/13:41:25		Insertion in Table completed!!!
2020-10-17/13:41:25		Deleting Good Data Folder!!!
2020-10-17/13:41:25		Good_Data folder deleted!!!
2020-10-17/13:41:25		Moving bad files to Archive and deleting Bad_Data folder!!!
2020-10-17/13:41:25		Bad files moved to archive!! Bad folder Deleted!!
2020-10-17/13:41:25		Validation Operation completed!!
2020-10-17/13:41:25		Extracting csv file from table
2020-10-17/13:41:25		Start of Prediction
2020-10-17/13:41:25		Entered the get_data method of the Data_Getter class
2020-10-17/13:41:25		Data Load Successful.Exited the get_data method of the Data_Getter class
2020-10-17/13:41:25		Entered the is_null_present method of the Preprocessor class
2020-10-17/13:41:25		Finding missing values is a success.Data written to the null values file. Exited the is_null_present method of the Preprocessor class
2020-10-17/13:41:25		Entered the load_model method of the File_Operation class
2020-10-17/13:41:25		Model File KMeans loaded. Exited the load_model method of the Model_Finder class
2020-10-17/13:41:25		Entered the find_correct_model_file method of the File_Operation class
2020-10-17/13:41:25		Exited the find_correct_model_file method of the Model_Finder class.
2020-10-17/13:41:25		Entered the load_model method of the File_Operation class
2020-10-17/13:41:25		Model File XGBoost0 loaded. Exited the load_model method of the Model_Finder class
2020-10-17/13:41:25		End of Prediction
2020-10-17/13:41:25		End of Prediction
2020-11-04/19:33:42		Start of Validation on files for prediction!!
2020-11-04/19:33:29		Start of Validation on files for prediction!!
2020-11-04/19:33:29		Raw Data Validation Complete!!
2020-11-04/19:33:29		Starting Data Transforamtion!!
2020-11-04/19:33:29		DataTransformation Completed!!!
2020-11-04/19:33:29		Creating Prediction_Database and tables on the basis of given schema!!!
2020-11-04/19:33:30		Table creation Completed!!
2020-11-04/19:33:30		Insertion of Data into Table started!!!!
2020-11-04/19:34:10		Insertion in Table completed!!!
2020-11-04/19:34:10		Deleting Good Data Folder!!!
2020-11-04/19:34:10		Good_Data folder deleted!!!
2020-11-04/19:34:10		Moving bad files to Archive and deleting Bad_Data folder!!!
2020-11-08/19:59:28		Start of Validation on files for prediction!!
2020-11-08/19:59:28		Raw Data Validation Complete!!
2020-11-08/19:59:28		Starting Data Transforamtion!!
2020-11-08/19:59:28		DataTransformation Completed!!!
2020-11-08/19:59:28		Creating Prediction_Database and tables on the basis of given schema!!!
2020-11-08/19:59:29		Table creation Completed!!
2020-11-08/19:59:29		Insertion of Data into Table started!!!!
2020-11-08/19:59:40		Insertion in Table completed!!!
2020-11-08/19:59:40		Deleting Good Data Folder!!!
2020-11-08/19:59:40		Good_Data folder deleted!!!
2020-11-08/19:59:40		Moving bad files to Archive and deleting Bad_Data folder!!!
2020-11-08/19:59:40		Bad files moved to archive!! Bad folder Deleted!!
2020-11-08/19:59:40		Validation Operation completed!!
2020-11-08/19:59:40		Extracting csv file from table
2020-11-08/19:59:40		Start of Prediction
2020-11-08/19:59:40		Entered the get_data method of the Data_Getter class
2020-11-08/19:59:40		Data Load Successful.Exited the get_data method of the Data_Getter class
2020-11-08/19:59:40		Entered the is_null_present method of the Preprocessor class
2020-11-08/19:59:40		Finding missing values is a success.Data written to the null values file. Exited the is_null_present method of the Preprocessor class
2020-11-08/19:59:40		Entered the load_model method of the File_Operation class
2020-11-08/19:59:40		Model File KMeans loaded. Exited the load_model method of the Model_Finder class
2020-11-08/19:59:40		Entered the find_correct_model_file method of the File_Operation class
2020-11-08/19:59:40		Exited the find_correct_model_file method of the Model_Finder class.
2020-11-08/19:59:40		Entered the load_model method of the File_Operation class
2020-11-08/19:59:40		Model File XGBoost0 loaded. Exited the load_model method of the Model_Finder class
2020-11-08/19:59:41		End of Prediction
2020-11-08/19:59:41		End of Prediction
2020-11-08/21:38:02		Start of Validation on files for prediction!!
2020-11-08/21:38:10		Start of Validation on files for prediction!!
2020-11-08/21:38:11		Raw Data Validation Complete!!
2020-11-08/21:38:11		Starting Data Transforamtion!!
2020-11-08/21:38:11		DataTransformation Completed!!!
2020-11-08/21:38:11		Creating Prediction_Database and tables on the basis of given schema!!!
2020-11-08/21:38:11		Table creation Completed!!
2020-11-08/21:38:11		Insertion of Data into Table started!!!!
2020-11-08/21:38:21		Insertion in Table completed!!!
2020-11-08/21:38:21		Deleting Good Data Folder!!!
2020-11-08/21:38:21		Good_Data folder deleted!!!
2020-11-08/21:38:21		Moving bad files to Archive and deleting Bad_Data folder!!!
2020-11-08/21:38:21		Bad files moved to archive!! Bad folder Deleted!!
2020-11-08/21:38:21		Validation Operation completed!!
2020-11-08/21:38:21		Extracting csv file from table
2020-11-08/21:38:21		Start of Prediction
2020-11-08/21:38:21		Entered the get_data method of the Data_Getter class
2020-11-08/21:38:21		Data Load Successful.Exited the get_data method of the Data_Getter class
2020-11-08/21:38:21		Entered the is_null_present method of the Preprocessor class
2020-11-08/21:38:22		Finding missing values is a success.Data written to the null values file. Exited the is_null_present method of the Preprocessor class
2020-11-08/21:38:22		Entered the load_model method of the File_Operation class
2020-11-08/21:38:22		Model File KMeans loaded. Exited the load_model method of the Model_Finder class
2020-11-08/21:38:22		Entered the find_correct_model_file method of the File_Operation class
2020-11-08/21:38:22		Exited the find_correct_model_file method of the Model_Finder class.
2020-11-08/21:38:22		Entered the load_model method of the File_Operation class
2020-11-08/21:38:22		Model File XGBoost0 loaded. Exited the load_model method of the Model_Finder class
2020-11-08/21:38:23		End of Prediction
2020-11-08/21:38:23		End of Prediction
2020-11-08/21:39:35		Start of Validation on files for prediction!!
2020-11-08/21:39:35		Raw Data Validation Complete!!
2020-11-08/21:39:35		Starting Data Transforamtion!!
2020-11-08/21:39:35		DataTransformation Completed!!!
2020-11-08/21:39:35		Creating Prediction_Database and tables on the basis of given schema!!!
2020-11-08/21:39:35		Table creation Completed!!
2020-11-08/21:39:35		Insertion of Data into Table started!!!!
2020-11-08/21:39:45		Insertion in Table completed!!!
2020-11-08/21:39:45		Deleting Good Data Folder!!!
2020-11-08/21:39:45		Good_Data folder deleted!!!
2020-11-08/21:39:45		Moving bad files to Archive and deleting Bad_Data folder!!!
2020-11-08/21:39:45		Bad files moved to archive!! Bad folder Deleted!!
2020-11-08/21:39:45		Validation Operation completed!!
2020-11-08/21:39:45		Extracting csv file from table
2020-11-08/21:39:45		Start of Prediction
2020-11-08/21:39:45		Entered the get_data method of the Data_Getter class
2020-11-08/21:39:45		Data Load Successful.Exited the get_data method of the Data_Getter class
2020-11-08/21:39:45		Entered the is_null_present method of the Preprocessor class
2020-11-08/21:39:45		Finding missing values is a success.Data written to the null values file. Exited the is_null_present method of the Preprocessor class
2020-11-08/21:39:45		Entered the load_model method of the File_Operation class
2020-11-08/21:39:45		Model File KMeans loaded. Exited the load_model method of the Model_Finder class
2020-11-08/21:39:45		Entered the find_correct_model_file method of the File_Operation class
2020-11-08/21:39:45		Exited the find_correct_model_file method of the Model_Finder class.
2020-11-08/21:39:45		Entered the load_model method of the File_Operation class
2020-11-08/21:39:45		Model File XGBoost0 loaded. Exited the load_model method of the Model_Finder class
2020-11-08/21:39:45		End of Prediction
2020-11-08/21:39:45		End of Prediction
2020-11-08/21:44:02		Start of Validation on files for prediction!!
2020-11-08/21:44:02		Raw Data Validation Complete!!
2020-11-08/21:44:02		Starting Data Transforamtion!!
2020-11-08/21:44:02		DataTransformation Completed!!!
2020-11-08/21:44:02		Creating Prediction_Database and tables on the basis of given schema!!!
2020-11-08/21:44:03		Table creation Completed!!
2020-11-08/21:44:03		Insertion of Data into Table started!!!!
2020-11-08/21:44:13		Insertion in Table completed!!!
2020-11-08/21:44:13		Deleting Good Data Folder!!!
2020-11-08/21:44:13		Good_Data folder deleted!!!
2020-11-08/21:44:13		Moving bad files to Archive and deleting Bad_Data folder!!!
2020-11-08/21:44:13		Bad files moved to archive!! Bad folder Deleted!!
2020-11-08/21:44:13		Validation Operation completed!!
2020-11-08/21:44:13		Extracting csv file from table
2020-11-08/21:44:13		Start of Prediction
2020-11-08/21:44:13		Entered the get_data method of the Data_Getter class
2020-11-08/21:44:13		Data Load Successful.Exited the get_data method of the Data_Getter class
2020-11-08/21:44:13		Entered the is_null_present method of the Preprocessor class
2020-11-08/21:44:13		Finding missing values is a success.Data written to the null values file. Exited the is_null_present method of the Preprocessor class
2020-11-08/21:44:13		Entered the load_model method of the File_Operation class
2020-11-08/21:44:13		Model File KMeans loaded. Exited the load_model method of the Model_Finder class
2020-11-08/21:44:13		Entered the find_correct_model_file method of the File_Operation class
2020-11-08/21:44:13		Exited the find_correct_model_file method of the Model_Finder class.
2020-11-08/21:44:13		Entered the load_model method of the File_Operation class
2020-11-08/21:44:13		Model File XGBoost0 loaded. Exited the load_model method of the Model_Finder class
2020-11-08/21:44:13		End of Prediction
2020-11-08/21:44:13		End of Prediction
2020-11-08/21:49:18		Start of Validation on files for prediction!!
2020-11-08/21:49:18		Raw Data Validation Complete!!
2020-11-08/21:49:18		Starting Data Transforamtion!!
2020-11-08/21:49:18		DataTransformation Completed!!!
2020-11-08/21:49:18		Creating Prediction_Database and tables on the basis of given schema!!!
2020-11-08/21:49:19		Table creation Completed!!
2020-11-08/21:49:19		Insertion of Data into Table started!!!!
2020-11-08/21:49:29		Insertion in Table completed!!!
2020-11-08/21:49:29		Deleting Good Data Folder!!!
2020-11-08/21:49:29		Good_Data folder deleted!!!
2020-11-08/21:49:29		Moving bad files to Archive and deleting Bad_Data folder!!!
2020-11-08/21:49:29		Bad files moved to archive!! Bad folder Deleted!!
2020-11-08/21:49:29		Validation Operation completed!!
2020-11-08/21:49:29		Extracting csv file from table
2020-11-08/21:49:29		Start of Prediction
2020-11-08/21:49:29		Entered the get_data method of the Data_Getter class
2020-11-08/21:49:29		Data Load Successful.Exited the get_data method of the Data_Getter class
2020-11-08/21:49:29		Entered the is_null_present method of the Preprocessor class
2020-11-08/21:49:29		Finding missing values is a success.Data written to the null values file. Exited the is_null_present method of the Preprocessor class
2020-11-08/21:49:29		Entered the load_model method of the File_Operation class
2020-11-08/21:49:29		Model File KMeans loaded. Exited the load_model method of the Model_Finder class
2020-11-08/21:49:29		Entered the find_correct_model_file method of the File_Operation class
2020-11-08/21:49:29		Exited the find_correct_model_file method of the Model_Finder class.
2020-11-08/21:49:29		Entered the load_model method of the File_Operation class
2020-11-08/21:49:29		Model File XGBoost0 loaded. Exited the load_model method of the Model_Finder class
2020-11-08/21:49:30		End of Prediction
2020-11-08/21:49:30		End of Prediction
2020-11-08/21:54:36		Start of Validation on files for prediction!!
2020-11-08/21:54:37		Raw Data Validation Complete!!
2020-11-08/21:54:37		Starting Data Transforamtion!!
2020-11-08/21:54:37		DataTransformation Completed!!!
2020-11-08/21:54:37		Creating Prediction_Database and tables on the basis of given schema!!!
2020-11-08/21:54:38		Table creation Completed!!
2020-11-08/21:54:38		Insertion of Data into Table started!!!!
2020-11-08/21:54:48		Insertion in Table completed!!!
2020-11-08/21:54:48		Deleting Good Data Folder!!!
2020-11-08/21:54:48		Good_Data folder deleted!!!
2020-11-08/21:54:48		Moving bad files to Archive and deleting Bad_Data folder!!!
2020-11-08/21:54:48		Bad files moved to archive!! Bad folder Deleted!!
2020-11-08/21:54:48		Validation Operation completed!!
2020-11-08/21:54:48		Extracting csv file from table
2020-11-08/21:54:48		Start of Prediction
2020-11-08/21:54:48		Entered the get_data method of the Data_Getter class
2020-11-08/21:54:48		Data Load Successful.Exited the get_data method of the Data_Getter class
2020-11-08/21:54:48		Entered the is_null_present method of the Preprocessor class
2020-11-08/21:54:48		Finding missing values is a success.Data written to the null values file. Exited the is_null_present method of the Preprocessor class
2020-11-08/21:54:48		Entered the load_model method of the File_Operation class
2020-11-08/21:54:48		Model File KMeans loaded. Exited the load_model method of the Model_Finder class
2020-11-08/21:54:48		Entered the find_correct_model_file method of the File_Operation class
2020-11-08/21:54:48		Exited the find_correct_model_file method of the Model_Finder class.
2020-11-08/21:54:48		Entered the load_model method of the File_Operation class
2020-11-08/21:54:48		Model File XGBoost0 loaded. Exited the load_model method of the Model_Finder class
2020-11-08/21:54:49		End of Prediction
2020-11-08/21:54:49		End of Prediction
2020-11-08/21:57:26		Start of Validation on files for prediction!!
2020-11-08/21:57:26		Raw Data Validation Complete!!
2020-11-08/21:57:26		Starting Data Transforamtion!!
2020-11-08/21:57:26		DataTransformation Completed!!!
2020-11-08/21:57:26		Creating Prediction_Database and tables on the basis of given schema!!!
2020-11-08/21:57:27		Table creation Completed!!
2020-11-08/21:57:27		Insertion of Data into Table started!!!!
2020-11-08/21:57:37		Insertion in Table completed!!!
2020-11-08/21:57:37		Deleting Good Data Folder!!!
2020-11-08/21:57:37		Good_Data folder deleted!!!
2020-11-08/21:57:37		Moving bad files to Archive and deleting Bad_Data folder!!!
2020-11-08/21:57:37		Bad files moved to archive!! Bad folder Deleted!!
2020-11-08/21:57:37		Validation Operation completed!!
2020-11-08/21:57:37		Extracting csv file from table
2020-11-08/21:57:37		Start of Prediction
2020-11-08/21:57:37		Entered the get_data method of the Data_Getter class
2020-11-08/21:57:37		Data Load Successful.Exited the get_data method of the Data_Getter class
2020-11-08/21:57:37		Entered the is_null_present method of the Preprocessor class
2020-11-08/21:57:37		Finding missing values is a success.Data written to the null values file. Exited the is_null_present method of the Preprocessor class
2020-11-08/21:57:37		Entered the load_model method of the File_Operation class
2020-11-08/21:57:37		Model File KMeans loaded. Exited the load_model method of the Model_Finder class
2020-11-08/21:57:37		Entered the find_correct_model_file method of the File_Operation class
2020-11-08/21:57:37		Exited the find_correct_model_file method of the Model_Finder class.
2020-11-08/21:57:37		Entered the load_model method of the File_Operation class
2020-11-08/21:57:37		Model File XGBoost0 loaded. Exited the load_model method of the Model_Finder class
2020-11-08/21:57:38		End of Prediction
2020-11-08/21:57:38		End of Prediction
2020-11-09/21:35:09		Start of Validation on files for prediction!!
2020-11-09/21:35:09		Raw Data Validation Complete!!
2020-11-09/21:35:09		Starting Data Transforamtion!!
2020-11-09/21:35:09		DataTransformation Completed!!!
2020-11-09/21:35:09		Creating Prediction_Database and tables on the basis of given schema!!!
2020-11-09/21:35:10		Table creation Completed!!
2020-11-09/21:35:10		Insertion of Data into Table started!!!!
2020-11-09/21:35:20		Insertion in Table completed!!!
2020-11-09/21:35:20		Deleting Good Data Folder!!!
2020-11-09/21:35:20		Good_Data folder deleted!!!
2020-11-09/21:35:20		Moving bad files to Archive and deleting Bad_Data folder!!!
2020-11-09/21:35:20		Bad files moved to archive!! Bad folder Deleted!!
2020-11-09/21:35:20		Validation Operation completed!!
2020-11-09/21:35:20		Extracting csv file from table
2020-11-09/21:35:20		Start of Prediction
2020-11-09/21:35:20		Entered the get_data method of the Data_Getter class
2020-11-09/21:35:20		Data Load Successful.Exited the get_data method of the Data_Getter class
2020-11-09/21:35:20		Entered the is_null_present method of the Preprocessor class
2020-11-09/21:35:20		Finding missing values is a success.Data written to the null values file. Exited the is_null_present method of the Preprocessor class
2020-11-09/21:35:20		Entered the load_model method of the File_Operation class
2020-11-09/21:35:20		Model File KMeans loaded. Exited the load_model method of the Model_Finder class
2020-11-09/21:35:20		Entered the find_correct_model_file method of the File_Operation class
2020-11-09/21:35:20		Exited the find_correct_model_file method of the Model_Finder class.
2020-11-09/21:35:20		Entered the load_model method of the File_Operation class
2020-11-09/21:35:20		Model File XGBoost0 loaded. Exited the load_model method of the Model_Finder class
2020-11-09/21:35:20		End of Prediction
2020-11-09/21:35:20		End of Prediction
