2020-10-02/13:02:52		Column Length Validation Started!!
2020-10-02/13:02:52		Column Length Validation Completed!!
2020-10-02/13:06:50		Column Length Validation Started!!
2020-10-02/13:06:50		Column Length Validation Completed!!
2020-10-02/13:07:53		Column Length Validation Started!!
2020-10-02/13:07:53		Column Length Validation Completed!!
2020-10-02/19:49:39		Column Length Validation Started!!
2020-10-02/19:49:39		Column Length Validation Completed!!
2020-10-02/19:56:50		Column Length Validation Started!!
2020-10-02/19:56:50		Column Length Validation Completed!!
2020-10-02/20:01:32		Column Length Validation Started!!
2020-10-02/20:01:32		Column Length Validation Completed!!
2020-10-02/20:06:36		Column Length Validation Started!!
2020-10-02/20:06:36		Column Length Validation Completed!!
2020-10-02/20:10:07		Column Length Validation Started!!
2020-10-02/20:10:07		Column Length Validation Completed!!
2020-10-02/20:43:57		Column Length Validation Started!!
2020-10-02/20:43:57		Column Length Validation Completed!!
2020-10-02/20:59:59		Column Length Validation Started!!
2020-10-02/20:59:59		Column Length Validation Completed!!
2020-10-04/10:12:28		Column Length Validation Started!!
2020-10-04/10:12:34		Column Length Validation Completed!!
2020-10-04/10:32:47		Column Length Validation Started!!
2020-10-04/10:32:47		Column Length Validation Completed!!
2020-10-04/10:37:03		Column Length Validation Started!!
2020-10-04/10:37:03		Column Length Validation Completed!!
2020-10-04/10:38:33		Column Length Validation Started!!
2020-10-04/10:38:33		Column Length Validation Completed!!
2020-10-04/11:05:19		Column Length Validation Started!!
2020-10-04/11:05:19		Column Length Validation Completed!!
2020-10-04/11:06:49		Column Length Validation Started!!
2020-10-04/11:06:49		Column Length Validation Completed!!
2020-10-04/11:11:22		Column Length Validation Started!!
2020-10-04/11:11:22		Column Length Validation Completed!!
2020-10-04/11:14:01		Column Length Validation Started!!
2020-10-04/11:14:01		Column Length Validation Completed!!
2020-10-04/11:23:55		Column Length Validation Started!!
2020-10-04/11:23:55		Column Length Validation Completed!!
2020-10-04/11:41:15		Column Length Validation Started!!
2020-10-04/11:41:15		Column Length Validation Completed!!
2020-10-04/11:59:15		Column Length Validation Started!!
2020-10-04/11:59:15		Column Length Validation Completed!!
2020-10-05/12:44:03		Column Length Validation Started!!
2020-10-05/12:44:05		Column Length Validation Completed!!
2020-10-05/12:46:44		Column Length Validation Started!!
2020-10-05/12:46:47		Column Length Validation Completed!!
2020-10-05/20:02:01		Column Length Validation Started!!
2020-10-05/20:02:05		Column Length Validation Completed!!
2020-10-05/20:27:26		Column Length Validation Started!!
2020-10-05/20:27:26		Column Length Validation Completed!!
2020-10-07/11:39:13		Column Length Validation Started!!
2020-10-07/11:39:13		Column Length Validation Completed!!
2020-10-07/11:49:30		Column Length Validation Started!!
2020-10-07/11:49:30		Column Length Validation Completed!!
2020-10-07/11:52:34		Column Length Validation Started!!
2020-10-07/11:52:34		Column Length Validation Completed!!
2020-10-07/12:05:48		Column Length Validation Started!!
2020-10-07/12:05:48		Column Length Validation Completed!!
2020-10-07/12:17:31		Column Length Validation Started!!
2020-10-07/12:17:31		Column Length Validation Completed!!
2020-10-07/12:33:58		Column Length Validation Started!!
2020-10-07/12:33:58		Column Length Validation Completed!!
2020-10-07/12:38:16		Column Length Validation Started!!
2020-10-07/12:38:16		Column Length Validation Completed!!
2020-10-07/12:44:34		Column Length Validation Started!!
2020-10-07/12:44:34		Column Length Validation Completed!!
2020-10-07/20:33:02		Column Length Validation Started!!
2020-10-07/20:33:02		Column Length Validation Completed!!
2020-10-07/20:37:28		Column Length Validation Started!!
2020-10-07/20:37:28		Column Length Validation Completed!!
2020-10-07/20:39:40		Column Length Validation Started!!
2020-10-07/20:39:40		Column Length Validation Completed!!
2020-10-07/20:45:39		Column Length Validation Started!!
2020-10-07/20:45:39		Column Length Validation Completed!!
2020-10-07/20:50:32		Column Length Validation Started!!
2020-10-07/20:50:32		Column Length Validation Completed!!
2020-10-07/20:54:34		Column Length Validation Started!!
2020-10-07/20:54:34		Column Length Validation Completed!!
2020-10-07/21:30:50		Column Length Validation Started!!
2020-10-07/21:30:50		Column Length Validation Completed!!
2020-10-07/21:38:11		Column Length Validation Started!!
2020-10-07/21:38:11		Column Length Validation Completed!!
2020-10-07/21:40:33		Column Length Validation Started!!
2020-10-07/21:40:33		Column Length Validation Completed!!
2020-10-15/18:45:40		Column Length Validation Started!!
2020-10-15/18:45:40		Column Length Validation Completed!!
2020-10-15/19:01:10		Column Length Validation Started!!
2020-10-15/19:01:10		Column Length Validation Completed!!
2020-10-15/19:18:35		Column Length Validation Started!!
2020-10-15/19:18:35		Column Length Validation Completed!!
2020-10-15/19:22:47		Column Length Validation Started!!
2020-10-15/19:22:47		Column Length Validation Completed!!
2020-10-16/19:44:24		Column Length Validation Started!!
2020-10-16/19:44:24		Column Length Validation Completed!!
2020-10-17/13:07:27		Column Length Validation Started!!
2020-10-17/13:07:27		Column Length Validation Completed!!
2020-10-17/13:08:27		Column Length Validation Started!!
2020-10-17/13:08:27		Column Length Validation Completed!!
2020-10-17/13:21:57		Column Length Validation Started!!
2020-10-17/13:21:57		Column Length Validation Completed!!
2020-10-17/13:38:29		Column Length Validation Started!!
2020-10-17/13:38:29		Column Length Validation Completed!!
2020-11-04/19:21:18		Column Length Validation Started!!
2020-11-04/19:21:18		Column Length Validation Completed!!
2020-11-04/19:22:51		Column Length Validation Started!!
2020-11-04/19:22:51		Column Length Validation Completed!!
2020-11-04/19:24:52		Column Length Validation Started!!
2020-11-04/19:24:52		Column Length Validation Completed!!
2020-11-04/19:28:10		Column Length Validation Started!!
2020-11-04/19:28:10		Column Length Validation Completed!!
2020-11-04/19:29:38		Column Length Validation Started!!
2020-11-04/19:29:38		Column Length Validation Completed!!
2020-11-04/19:34:16		Column Length Validation Started!!
2020-11-04/19:34:16		Column Length Validation Completed!!
2020-11-04/19:35:03		Column Length Validation Started!!
2020-11-04/19:35:03		Column Length Validation Completed!!
2020-11-04/19:36:54		Column Length Validation Started!!
2020-11-04/19:36:54		Column Length Validation Completed!!
2020-11-04/19:38:10		Column Length Validation Started!!
2020-11-04/19:38:10		Column Length Validation Completed!!
2020-11-04/19:39:59		Column Length Validation Started!!
2020-11-04/19:39:59		Column Length Validation Completed!!
2020-11-04/19:53:41		Column Length Validation Started!!
2020-11-04/19:53:41		Column Length Validation Completed!!
2020-11-04/19:56:11		Column Length Validation Started!!
2020-11-04/19:56:11		Column Length Validation Completed!!
2020-11-04/19:59:35		Column Length Validation Started!!
2020-11-04/19:59:35		Column Length Validation Completed!!
2020-11-04/20:07:16		Column Length Validation Started!!
2020-11-04/20:07:16		Column Length Validation Completed!!
2020-11-04/20:08:45		Column Length Validation Started!!
2020-11-04/20:08:45		Column Length Validation Completed!!
2020-11-04/20:10:47		Column Length Validation Started!!
2020-11-04/20:10:47		Column Length Validation Completed!!
2020-11-08/19:42:29		Column Length Validation Started!!
2020-11-08/19:42:29		Column Length Validation Completed!!
2020-11-08/20:00:39		Column Length Validation Started!!
2020-11-08/20:00:39		Column Length Validation Completed!!
2020-11-09/21:04:08		Column Length Validation Started!!
2020-11-09/21:04:08		Column Length Validation Completed!!
2020-11-09/21:29:09		Column Length Validation Started!!
2020-11-09/21:29:09		Column Length Validation Completed!!
