2020-10-02/13:02:52		Tables created successfully!!
2020-10-02/13:06:50		Tables created successfully!!
2020-10-02/13:08:00		Tables created successfully!!
2020-10-02/19:49:39		Tables created successfully!!
2020-10-02/19:56:50		Tables created successfully!!
2020-10-02/20:01:32		Tables created successfully!!
2020-10-02/20:06:36		Tables created successfully!!
2020-10-02/20:10:07		Tables created successfully!!
2020-10-02/20:43:57		Tables created successfully!!
2020-10-02/20:59:59		Tables created successfully!!
2020-10-04/10:13:55		Tables created successfully!!
2020-10-04/10:32:54		Tables created successfully!!
2020-10-04/10:37:07		Tables created successfully!!
2020-10-04/10:38:39		Tables created successfully!!
2020-10-04/11:05:23		Tables created successfully!!
2020-10-04/11:06:53		Tables created successfully!!
2020-10-04/11:11:27		Tables created successfully!!
2020-10-04/11:14:06		Tables created successfully!!
2020-10-04/11:24:00		Tables created successfully!!
2020-10-04/11:41:19		Tables created successfully!!
2020-10-04/11:59:20		Tables created successfully!!
2020-10-05/12:44:32		Tables created successfully!!
2020-10-05/12:47:17		Tables created successfully!!
2020-10-05/20:02:31		Tables created successfully!!
2020-10-05/20:27:36		Tables created successfully!!
2020-10-07/11:39:13		Tables created successfully!!
2020-10-07/11:49:30		Tables created successfully!!
2020-10-07/11:52:35		Tables created successfully!!
2020-10-07/12:05:48		Tables created successfully!!
2020-10-07/12:17:31		Tables created successfully!!
2020-10-07/12:33:58		Tables created successfully!!
2020-10-07/12:38:16		Tables created successfully!!
2020-10-07/12:44:34		Tables created successfully!!
2020-10-07/20:33:02		Tables created successfully!!
2020-10-07/20:37:28		Tables created successfully!!
2020-10-07/20:39:40		Tables created successfully!!
2020-10-07/20:45:50		Tables created successfully!!
2020-10-07/20:50:32		Tables created successfully!!
2020-10-07/20:54:35		Tables created successfully!!
2020-10-07/21:30:50		Tables created successfully!!
2020-10-07/21:38:11		Tables created successfully!!
2020-10-07/21:40:33		Tables created successfully!!
2020-10-15/18:45:40		Tables created successfully!!
2020-10-15/19:01:11		Tables created successfully!!
2020-10-15/19:18:36		Tables created successfully!!
2020-10-15/19:22:48		Tables created successfully!!
2020-10-16/19:44:24		Tables created successfully!!
2020-10-17/13:07:27		Tables created successfully!!
2020-10-17/13:08:27		Tables created successfully!!
2020-10-17/13:21:57		Tables created successfully!!
2020-10-17/13:38:29		Tables created successfully!!
2020-11-04/19:21:18		Tables created successfully!!
2020-11-04/19:22:51		Tables created successfully!!
2020-11-04/19:24:52		Tables created successfully!!
2020-11-04/19:28:10		Tables created successfully!!
2020-11-04/19:29:38		Tables created successfully!!
2020-11-04/19:34:16		Tables created successfully!!
2020-11-04/19:35:04		Tables created successfully!!
2020-11-04/19:36:54		Tables created successfully!!
2020-11-04/19:38:10		Tables created successfully!!
2020-11-04/19:40:00		Tables created successfully!!
2020-11-04/19:53:42		Tables created successfully!!
2020-11-04/19:56:22		Tables created successfully!!
2020-11-04/19:59:36		Tables created successfully!!
2020-11-04/20:07:25		Tables created successfully!!
2020-11-04/20:08:58		Tables created successfully!!
2020-11-04/20:10:54		Tables created successfully!!
2020-11-08/19:42:30		Tables created successfully!!
2020-11-08/20:00:39		Tables created successfully!!
2020-11-09/21:04:09		Tables created successfully!!
2020-11-09/21:29:11		Tables created successfully!!
